{
    "name": "Tyria 3D API",
    "description": "Tyria 3D API: a library for exploring Guild Wars 2 data formats.",
    "version": "1.0.3",
    "url": "http://www.tyria3d.com/",
    "options": {
    	"linkNatives": false,
    	"tabtospace": 4,
    	"markdown": true,
        "outdir": "../../../build/apidocs/API",
        "paths": [
	      ".", "../../../vendor/DataStream.js"    
	    ]
    }
}